<?xml version="1.0" encoding="utf-8"?>
<!-- Generator: Adobe Illustrator 19.2.1, SVG Export Plug-In . SVG Version: 6.00 Build 0)  -->
<!DOCTYPE svg PUBLIC "-//W3C//DTD SVG 1.1//EN" "http://www.w3.org/Graphics/SVG/1.1/DTD/svg11.dtd">
<svg version="1.1" id="Layer_1" xmlns="http://www.w3.org/2000/svg" xmlns:xlink="http://www.w3.org/1999/xlink" x="0px" y="0px"
	 width="48px" height="48px" fill="#27632A" viewBox="0 0 48 48" enable-background="new 0 0 48 48" xml:space="preserve">
<path d="M32.707,15.293c-0.391-0.391-1.023-0.391-1.414,0L24,22.586l-7.293-7.293c-0.391-0.391-1.023-0.391-1.414,0
	s-0.391,1.023,0,1.414L22.586,24l-7.293,7.293c-0.391,0.391-0.391,1.023,0,1.414C15.488,32.902,15.744,33,16,33
	s0.512-0.098,0.707-0.293L24,25.414l7.293,7.293C31.488,32.902,31.744,33,32,33s0.512-0.098,0.707-0.293
	c0.391-0.391,0.391-1.023,0-1.414L25.414,24l7.293-7.293C33.098,16.316,33.098,15.684,32.707,15.293z"/>
<path d="M24,1C11.318,1,1,11.317,1,24s10.318,23,23,23s23-10.317,23-23S36.682,1,24,1z M24,45C12.42,45,3,35.579,3,24S12.42,3,24,3
	s21,9.421,21,21S35.58,45,24,45z"/>
</svg>
