<?xml version="1.0" encoding="UTF-8"?>
<svg width="81px" height="75px" viewBox="0 0 81 75" version="1.1" xmlns="http://www.w3.org/2000/svg" xmlns:xlink="http://www.w3.org/1999/xlink">
    <title>iconfinder_Smart_sensor_4629145</title>
    <g id="Mis" stroke="none" stroke-width="1" fill="none" fill-rule="evenodd">
        <g id="Artboard" transform="translate(-132.000000, -1661.000000)" fill="#000000" fill-rule="nonzero">
            <g id="Group-34" transform="translate(73.000000, 1661.000000)">
                <g id="iconfinder_Smart_sensor_4629145" transform="translate(59.000000, 0.000000)">
                    <path d="M35.0046884,25.0000054 C34.1949305,24.9981234 33.4639438,25.4847067 33.1531902,26.2324659 C32.8424367,26.980225 33.0132487,27.8415776 33.5858355,28.4141645 C34.1584224,28.9867513 35.019775,29.1575633 35.7675341,28.8468098 C36.5152933,28.5360562 37.0018766,27.8050695 37,26.9953116 C36.9974229,25.8944022 36.1055978,25.0025771 35.0046884,25.0000054 L35.0046884,25.0000054 Z M35.0046884,28.0641496 C34.5731248,28.0660269 34.1829616,27.8076369 34.0162819,27.4095557 C33.8496023,27.0114745 33.9392645,26.5521779 34.2434246,26.2460123 C34.5475847,25.9398467 35.0062822,25.8471681 35.4054502,26.0112281 C35.8046181,26.1752882 36.0655666,26.5637448 36.0665254,26.9953116 C36.0677554,27.2779483 35.9565069,27.549468 35.7573085,27.7499799 C35.55811,27.9504918 35.2873272,28.0635222 35.0046884,28.0641496 L35.0046884,28.0641496 Z" id="Shape"></path>
                    <path d="M65.3002076,74.0496962 L65.3002076,65.7969473 C67.5293596,66.5442191 69.9703567,66.3236997 72.0288643,65.1890811 C74.087372,64.0544626 75.5745248,62.1098448 76.1282304,59.8287037 L76.2144006,59.4804687 L75.88233,59.3420139 C71.9408457,57.6945317 67.3882224,59.2603908 65.3002076,62.9816985 L65.3002076,57.4728733 C67.5290934,58.219451 69.9695245,57.9985819 72.0275242,56.8640231 C74.0855239,55.7294643 75.5723518,53.7852671 76.1261287,51.5046296 L76.2122989,51.1563947 L75.8802283,51.0179398 C71.9374441,49.3659621 67.3807119,50.9371598 65.3002076,54.6660156 L65.3002076,48.9285301 C68.518831,49.9127517 71.9404021,48.1768678 73.0408147,45.0014468 C73.1038661,44.8168403 73.1606124,44.6238426 73.2089517,44.4329427 L73.2930202,44.0847078 L72.9609497,43.9462529 C69.8622936,42.6506479 66.2919674,44.033486 64.8798651,47.0761719 C63.465346,44.0336326 59.8927013,42.6533968 56.7945771,43.9525463 L56.4646082,44.0910012 L56.5486767,44.4392361 C56.5886092,44.6049624 56.6369486,44.7706887 56.6915931,44.9343171 C57.7599313,48.1543097 61.2126149,49.9296546 64.4595226,48.9285301 L64.4595226,54.6660156 C62.3788872,50.936069 57.820759,49.3647021 53.8774001,51.0179398 L53.5474312,51.1563947 L53.6314997,51.5046296 C54.1829011,53.7871858 55.6696739,55.733513 57.7289139,56.8685352 C59.788154,58.0035574 62.230398,58.2228453 64.4595226,57.4728733 L64.4595226,62.9879919 C62.3775314,59.2596195 57.8202651,57.6894532 53.8774001,59.3420139 L53.5474312,59.4804688 L53.6314997,59.8287037 C54.1829011,62.1112599 55.6696739,64.0575871 57.7289139,65.1926093 C59.788154,66.3276315 62.230398,66.5469194 64.4595226,65.7969473 L64.4595226,74.0496962 L46.6790348,74.0496962 L46.6790348,41.9092882 L49.8778412,41.9092882 L49.8778412,23.1843171 L31.1221588,23.1843171 L31.1221588,30.4615885 L28.9847172,30.4615885 L28.9847172,18.3782552 C28.9847172,17.6170659 28.3665007,17 27.6038921,17 C26.8412834,17 26.2230669,17.6170659 26.2230669,18.3782552 L26.2230669,31.4244792 L31.1221588,31.4244792 L31.1221588,41.9134838 L34.3209652,41.9134838 L34.3209652,74.0496962 L17.4252984,74.0496962 L17.4252984,65.7969473 C19.6544504,66.5442191 22.0954475,66.3236997 24.1539551,65.1890811 C26.2124628,64.0544626 27.6996156,62.1098448 28.2533212,59.8287037 L28.3394914,59.4804687 L28.0074209,59.3420139 C24.0643579,57.6955769 19.5112299,59.2643174 17.4252984,62.9879919 L17.4252984,57.4728733 C19.6544504,58.220145 22.0954475,57.9996256 24.1539551,56.8650071 C26.2124628,55.7303885 27.6996156,53.7857708 28.2533212,51.5046296 L28.3394914,51.1563947 L28.0074209,51.0179398 C24.0675143,49.3694108 19.5153949,50.9323893 17.4252984,54.651331 L17.4252984,48.9285301 C19.0721208,49.4332494 20.8546085,49.2374176 22.3520226,48.3872591 C23.8494367,47.5371005 24.9290912,46.1079477 25.3361443,44.4371383 L25.4202128,44.0889034 L25.0902439,43.9504485 C21.9926472,42.6533609 18.4218531,44.0319553 17.0049559,47.0719763 C15.5881347,44.0330471 12.0182136,42.6553578 8.92176959,43.9525463 L8.59180073,44.0910012 L8.67586923,44.4392361 C9.08021718,46.1112346 10.1590685,47.5420053 11.656838,48.3925917 C13.1546076,49.243178 14.9380334,49.4379003 16.5846134,48.9306279 L16.5846134,54.6681134 C14.503978,50.9381668 9.94584979,49.3667999 6.00249092,51.0200376 L5.67252206,51.1584925 L5.75659056,51.5067274 C6.30799193,53.7892836 7.79476467,55.7356108 9.85400472,56.870633 C11.9132448,58.0056552 14.3554889,58.2249431 16.5846134,57.4749711 L16.5846134,62.9858941 C14.4972928,59.2637975 9.94450142,57.6969781 6.00249092,59.3441117 L5.67252206,59.4825666 L5.75659056,59.8308015 C6.31430605,62.1094752 7.80212051,64.0511189 9.85935527,65.1850358 C11.91659,66.3189527 14.3554177,66.5416152 16.5846134,65.7990451 L16.5846134,74.051794 L0,74.051794 L0,75 L81,75 L81,74.041305 L65.3002076,74.0496962 Z M28.1440322,30.4364149 L27.0637519,30.4364149 L27.0637519,18.3782552 C27.0637519,18.0804993 27.3055809,17.8391204 27.6038921,17.8391204 C27.9022032,17.8391204 28.1440322,18.0804993 28.1440322,18.3782552 L28.1440322,30.4364149 Z M21.229398,60.4014034 C23.1151806,59.4038724 25.3363307,59.2513954 27.341178,59.9818432 C26.750753,61.9781109 25.3597848,63.6419356 23.4978126,64.5791348 C21.6358403,65.516334 19.4685373,65.6435181 17.5093669,64.9305556 C18.0885342,62.9828414 19.4295072,61.3502016 21.229398,60.4014034 L21.229398,60.4014034 Z M17.5219772,56.5708189 C18.1240724,54.5867111 19.5168504,52.9368987 21.3737732,52.0081817 C23.2306959,51.0794648 25.3884609,50.953517 27.341178,51.6598669 C26.7493635,53.6554948 25.3586918,55.3188893 23.497557,56.2572554 C21.6364221,57.1956215 19.4698177,57.3257711 17.5093669,56.6169705 L17.5219772,56.5708189 Z M17.5387909,47.9992043 C17.9932394,46.6328621 18.9759113,45.5044635 20.2681941,44.8650403 C21.5604768,44.2256171 23.0551861,44.1282044 24.4197976,44.5944734 C23.9808989,45.9802921 23.000629,47.1308795 21.7007745,47.7859145 C20.40092,48.4409495 18.8913373,48.5450723 17.5135703,48.0747251 L17.5387909,47.9992043 Z M12.2235599,47.7411748 C10.9672122,47.0769795 10.022318,45.9470248 9.59221588,44.5944734 C10.967509,44.1248436 12.4743107,44.2276129 13.7728195,44.8796057 C15.0713284,45.5315984 16.0522012,46.6779124 16.4942398,48.0600405 C16.492994,48.0648564 16.492994,48.0699092 16.4942398,48.0747251 C15.0855006,48.5560773 13.5401424,48.4353811 12.2235599,47.7411748 L12.2235599,47.7411748 Z M10.3908666,56.1974103 C8.58604039,55.2484227 7.24159363,53.6122185 6.66242865,51.6598669 C8.62313693,50.9503824 10.7902957,51.0801823 12.6519359,52.0186026 C14.5135762,52.9570229 15.9045816,54.6208314 16.4963415,56.6169705 C14.4933616,57.345543 12.2749155,57.1930943 10.3908666,56.1974103 L10.3908666,56.1974103 Z M10.3908666,64.5214844 C8.58560363,63.5720137 7.24109587,61.9349789 6.66242865,59.9818432 C8.61680731,59.2751923 10.7763743,59.4022243 12.6340687,60.3331123 C14.491763,61.2640003 15.8839441,62.9167444 16.4837312,64.9032841 L16.4963415,64.9389468 C14.4930921,65.6641791 12.276322,65.5126072 10.3908666,64.5214844 L10.3908666,64.5214844 Z M31.9628438,41.0701678 L31.9628438,24.0234375 L49.0371562,24.0234375 L49.0371562,41.0638744 L31.9628438,41.0701678 Z M41.7105864,47.9194878 L43.1691749,47.9194878 L43.1691749,63.2208478 C43.1691749,64.6922488 41.9741446,65.885055 40.5,65.885055 C39.0258554,65.885055 37.8308251,64.6922488 37.8308251,63.2208478 L37.8308251,41.9092882 L40.5,41.9092882 L40.5,46.7111545 C40.5011569,47.3780197 41.0424778,47.9183331 41.7105864,47.9194878 Z M41.7105864,47.0803734 C41.6121188,47.0809259 41.5174921,47.0422735 41.4476669,46.972972 C41.3778417,46.9036705 41.3385833,46.8094404 41.3385833,46.7111545 L41.3385833,41.9092882 L43.6777893,41.9092882 L43.6777893,46.7111545 C43.6777893,46.9150652 43.5121788,47.0803734 43.3078879,47.0803734 L41.7105864,47.0803734 Z M45.8383498,73.9070457 L35.1616502,73.9070457 L35.1616502,41.9092882 L36.9901401,41.9092882 L36.9901401,63.2208478 C36.9901401,65.1556822 38.5615579,66.7241753 40.5,66.7241753 C42.4384421,66.7241753 44.0098599,65.1556822 44.0098599,63.2208478 L44.0098599,47.6971209 C44.3282605,47.4700715 44.5175892,47.1038322 44.5184743,46.7132523 L44.5184743,41.9092882 L45.8383498,41.9092882 L45.8383498,73.9070457 Z M65.457836,64.6976997 C66.1023607,62.7645595 67.5020638,61.173355 69.3391552,60.2853552 C71.1762467,59.3973553 73.2948609,59.2879011 75.2139855,59.9818432 C74.6235605,61.9781109 73.2325923,63.6419356 71.37062,64.5791348 C69.5086478,65.516334 67.3413447,65.6435181 65.3821744,64.9305556 C65.4052932,64.8571325 65.4305138,64.7774161 65.457836,64.6976997 L65.457836,64.6976997 Z M69.1022055,52.0773293 C70.9879881,51.0797983 73.2091382,50.9273213 75.2139855,51.6577691 C74.622171,53.653397 73.2314993,55.3167915 71.3703644,56.2551576 C69.5092295,57.1935237 67.3426251,57.3236733 65.3821744,56.6148727 C65.9593539,54.6640228 67.3005699,53.0280619 69.1022055,52.0773293 L69.1022055,52.0773293 Z M68.0177218,44.9280237 C69.3346712,44.2324824 70.8812308,44.1117518 72.2905034,44.5944734 C72.2778931,44.640625 72.2610794,44.6867766 72.2463674,44.7308304 C71.2729385,47.5413143 68.2054762,49.0365456 65.3863778,48.0747251 C65.8172837,46.7226136 66.7619514,45.5929296 68.0177218,44.9280237 L68.0177218,44.9280237 Z M60.0963674,47.7411748 C58.8614177,47.0920612 57.9265499,45.9905041 57.4881422,44.6678964 C57.4881422,44.6427228 57.4734302,44.6175492 57.4650234,44.5944734 C58.842807,44.1247311 60.352126,44.2291367 61.6518195,44.8840906 C62.9515131,45.5390446 63.9318543,46.6892523 64.3712506,48.0747251 C62.9612835,48.557547 61.4140406,48.4368225 60.0963674,47.7411748 L60.0963674,47.7411748 Z M58.2615724,56.1974103 C56.4599368,55.2466777 55.1187208,53.6107167 54.5415413,51.6598669 C56.5022495,50.9503824 58.6694083,51.0801823 60.5310486,52.0186026 C62.3926888,52.9570229 63.7836942,54.6208314 64.3754541,56.6169705 C62.3699085,57.3475086 60.1480813,57.1950375 58.2615724,56.1974103 L58.2615724,56.1974103 Z M58.2615724,64.5214844 C56.4595001,63.5702684 55.1182233,61.9334769 54.5415413,59.9818432 C56.5011222,59.2720663 58.6672729,59.4007233 60.5286962,60.3374459 C62.3901195,61.2741685 63.7818752,62.9359541 64.3754541,64.9305556 C62.3713805,65.6643209 60.1496,65.5156647 58.2615724,64.5214844 L58.2615724,64.5214844 Z" id="Shape"></path>
                    <path d="M40.9957447,0.829816522 C46.4743569,0.827294761 51.7080659,3.0619361 55.4468085,7 L56,6.35557256 C52.1014659,2.29879427 46.6760045,0 41,0 C35.3239955,0 29.8985341,2.29879427 26,6.35557256 L26.5531915,7 C30.2899148,3.0640642 35.5200917,0.829615045 40.9957447,0.829816522 L40.9957447,0.829816522 Z" id="Path"></path>
                    <path d="M50.4561421,12 L51,11.2963004 C48.3837852,7.93675967 44.5441283,6 40.5,6 C36.4558717,6 32.6162148,7.93675967 30,11.2963004 L30.5438579,12 C33.002688,8.77482603 36.6515321,6.90902593 40.5,6.90902593 C44.3484679,6.90902593 47.997312,8.77482603 50.4561421,12 L50.4561421,12 Z" id="Path"></path>
                    <path d="M34,16.3483003 L34.5928834,17 C35.7953444,15.0259174 38.0527828,13.8048864 40.5,13.8048864 C42.9472172,13.8048864 45.2046556,15.0259174 46.4071166,17 L47,16.3483003 C45.6042388,14.2662786 43.1460332,13 40.5,13 C37.8539668,13 35.3957612,14.2662786 34,16.3483003 L34,16.3483003 Z" id="Path"></path>
                </g>
            </g>
        </g>
    </g>
</svg>